first_name,last_name,email,gender,ip_address
Harish,Natarajan,harish@gmail.com,Male,38.194.51.128
Harish,Natarajan,harish@gameofthrones.com,Male,38.194.51.128
Harish,Natarajan,harish@terminator.com,Male,38.194.51.128
Harish,Natarajan,harish@gmail.com,Male,38.194.51.128
Harish,Natarajan,harish@gameofthrones.com,Male,38.194.51.128
Harish,Natarajan,harish@terminator.com,Male,38.194.51.128
Harish,Natarajan,harish@gmail.com,Male,38.194.51.128
Harish,Natarajan,harish@gameofthrones.com,Male,38.194.51.128
Harish,Natarajan,harish@terminator.com,Male,38.194.51.128
Harish,Natarajan,harish@gmail.com,Male,38.194.51.128
Harish,Natarajan,harish@gameofthrones.com,Male,38.194.51.128
Harish,Natarajan,harish@terminator.com,Male,38.194.51.128
Harish,Natarajan,harish@gmail.com,Male,38.194.51.128
Harish,Natarajan,harish@gameofthrones.com,Male,38.194.51.128
Harish,Natarajan,harish@terminator.com,Male,38.194.51.128
Harish,Natarajan,harish@gmail.com,Male,38.194.51.128
Harish,Natarajan,harish@gameofthrones.com,Male,38.194.51.128
Harish,Natarajan,harish@terminator.com,Male,38.194.51.128
Harish,Natarajan,harish@gmail.com,Male,38.194.51.128
Harish,Natarajan,harish@gameofthrones.com,Male,38.194.51.128
Harish,Natarajan,harish@terminator.com,Male,38.194.51.128
Harish,Natarajan,harish@gmail.com,Male,38.194.51.128
Harish,Natarajan,harish@gameofthrones.com,Male,38.194.51.128
Harish,Natarajan,harish@terminator.com,Male,38.194.51.128
Harish,Natarajan,harish@gmail.com,Male,38.194.51.128
Harish,Natarajan,harish@gameofthrones.com,Male,38.194.51.128
Harish,Natarajan,harish@terminator.com,Male,38.194.51.128
Harish,Natarajan,harish@gmail.com,Male,38.194.51.128
Harish,Natarajan,harish@gameofthrones.com,Male,38.194.51.128
Harish,Natarajan,harish@terminator.com,Male,38.194.51.128
Harish,Natarajan,harish@gmail.com,Male,38.194.51.128
Harish,Natarajan,harish@gameofthrones.com,Male,38.194.51.128
Harish,Natarajan,harish@terminator.com,Male,38.194.51.128
Harish,Natarajan,harish@gmail.com,Male,38.194.51.128
Harish,Natarajan,harish@gameofthrones.com,Male,38.194.51.128
Harish,Natarajan,harish@terminator.com,Male,38.194.51.128
Harish,Natarajan,harish@gmail.com,Male,38.194.51.128
Harish,Natarajan,harish@gameofthrones.com,Male,38.194.51.128
Harish,Natarajan,harish@terminator.com,Male,38.194.51.128
Harish,Natarajan,harish@gmail.com,Male,38.194.51.128
Harish,Natarajan,harish@gameofthrones.com,Male,38.194.51.128
Harish,Natarajan,harish@terminator.com,Male,38.194.51.128
Harish,Natarajan,harish@gmail.com,Male,38.194.51.128
Harish,Natarajan,harish@gameofthrones.com,Male,38.194.51.128
Harish,Natarajan,harish@terminator.com,Male,38.194.51.128
Harish,Natarajan,harish@gmail.com,Male,38.194.51.128
Harish,Natarajan,harish@gameofthrones.com,Male,38.194.51.128
Harish,Natarajan,harish@terminator.com,Male,38.194.51.128
Harish,Natarajan,harish@gmail.com,Male,38.194.51.128
Harish,Natarajan,harish@gameofthrones.com,Male,38.194.51.128
Harish,Natarajan,harish@terminator.com,Male,38.194.51.128
Harish,Natarajan,harish@gmail.com,Male,38.194.51.128
Harish,Natarajan,harish@gameofthrones.com,Male,38.194.51.128
Harish,Natarajan,harish@terminator.com,Male,38.194.51.128
Harish,Natarajan,harish@gmail.com,Male,38.194.51.128
Harish,Natarajan,harish@gameofthrones.com,Male,38.194.51.128
Harish,Natarajan,harish@terminator.com,Male,38.194.51.128
Harish,Natarajan,harish@gmail.com,Male,38.194.51.128
Harish,Natarajan,harish@gameofthrones.com,Male,38.194.51.128
Harish,Natarajan,harish@terminator.com,Male,38.194.51.128
Harish,Natarajan,harish@gmail.com,Male,38.194.51.128
Harish,Natarajan,harish@gameofthrones.com,Male,38.194.51.128
Harish,Natarajan,harish@terminator.com,Male,38.194.51.128
Harish,Natarajan,harish@gmail.com,Male,38.194.51.128
Harish,Natarajan,harish@gameofthrones.com,Male,38.194.51.128
Harish,Natarajan,harish@terminator.com,Male,38.194.51.128
Harish,Natarajan,harish@gmail.com,Male,38.194.51.128
Harish,Natarajan,harish@gameofthrones.com,Male,38.194.51.128
Harish,Natarajan,harish@terminator.com,Male,38.194.51.128
Harish,Natarajan,harish@gmail.com,Male,38.194.51.128
Harish,Natarajan,harish@gameofthrones.com,Male,38.194.51.128
Harish,Natarajan,harish@terminator.com,Male,38.194.51.128
Harish,Natarajan,harish@gmail.com,Male,38.194.51.128
Harish,Natarajan,harish@gameofthrones.com,Male,38.194.51.128
Harish,Natarajan,harish@terminator.com,Male,38.194.51.128
Harish,Natarajan,harish@gmail.com,Male,38.194.51.128
Harish,Natarajan,harish@gameofthrones.com,Male,38.194.51.128
Harish,Natarajan,harish@terminator.com,Male,38.194.51.128
Harish,Natarajan,harish@gmail.com,Male,38.194.51.128
Harish,Natarajan,harish@gameofthrones.com,Male,38.194.51.128
Harish,Natarajan,harish@terminator.com,Male,38.194.51.128
Harish,Natarajan,harish@gmail.com,Male,38.194.51.128
Harish,Natarajan,harish@gameofthrones.com,Male,38.194.51.128
Harish,Natarajan,harish@terminator.com,Male,38.194.51.128
Harish,Natarajan,harish@gmail.com,Male,38.194.51.128
Harish,Natarajan,harish@gameofthrones.com,Male,38.194.51.128
Harish,Natarajan,harish@terminator.com,Male,38.194.51.128
Harish,Natarajan,harish@gmail.com,Male,38.194.51.128
Harish,Natarajan,harish@gameofthrones.com,Male,38.194.51.128
Harish,Natarajan,harish@terminator.com,Male,38.194.51.128
Harish,Natarajan,harish@gmail.com,Male,38.194.51.128
Harish,Natarajan,harish@gameofthrones.com,Male,38.194.51.128
Harish,Natarajan,harish@terminator.com,Male,38.194.51.128
Harish,Natarajan,harish@gmail.com,Male,38.194.51.128
Harish,Natarajan,harish@gameofthrones.com,Male,38.194.51.128
Harish,Natarajan,harish@terminator.com,Male,38.194.51.128
Harish,Natarajan,harish@gmail.com,Male,38.194.51.128
Harish,Natarajan,harish@gameofthrones.com,Male,38.194.51.128
Harish,Natarajan,harish@terminator.com,Male,38.194.51.128
